%YAML 1.1
%TAG !u! tag:unity3d.com,2011:
--- !u!126 &1
NavMeshProjectSettings:
  m_ObjectHideFlags: 0
  serializedVersion: 2
  areas:
  - name: Walkable
    cost: 1
  - name: Not Walkable
    cost: 1
  - name: Jump
    cost: 2
  - name: Corridor
    cost: 1
  - name: Pool
    cost: 1
  - name: Slope
    cost: 1
  - name: Staff
    cost: 1
  - name: 
    cost: 1
  - name: 
    cost: 1
  - name: 
    cost: 1
  - name: 
    cost: 1
  - name: 
    cost: 1
  - name: 
    cost: 1
  - name: 
    cost: 1
  - name: 
    cost: 1
  - name: 
    cost: 1
  - name: 
    cost: 1
  - name: 
    cost: 1
  - name: 
    cost: 1
  - name: 
    cost: 1
  - name: 
    cost: 1
  - name: 
    cost: 1
  - name: 
    cost: 1
  - name: 
    cost: 1
  - name: 
    cost: 1
  - name: 
    cost: 1
  - name: 
    cost: 1
  - name: 
    cost: 1
  - name: 
    cost: 1
  - name: 
    cost: 1
  - name: 
    cost: 1
  - name: 
    cost: 1
  m_LastAgentTypeID: -1923039037
  m_Settings:
  - serializedVersion: 2
    agentTypeID: 0
    agentRadius: 0.5
    agentHeight: 2
    agentSlope: 12.8
    agentClimb: 0.75
    ledgeDropHeight: 0
    maxJumpAcrossDistance: 0
    minRegionArea: 2
    manualCellSize: 0
    cellSize: 0.16666667
    manualTileSize: 0
    tileSize: 256
    accuratePlacement: 0
    debug:
      m_Flags: 0
  - serializedVersion: 2
    agentTypeID: -1372625422
    agentRadius: 0.3
    agentHeight: 2
    agentSlope: 44.31
    agentClimb: 0.25
    ledgeDropHeight: 0
    maxJumpAcrossDistance: 0
    minRegionArea: 2
    manualCellSize: 0
    cellSize: 0.16666667
    manualTileSize: 0
    tileSize: 256
    accuratePlacement: 0
    debug:
      m_Flags: 0
  - serializedVersion: 2
    agentTypeID: -334000983
    agentRadius: 0.5
    agentHeight: 2
    agentSlope: 45
    agentClimb: 0.5
    ledgeDropHeight: 0
    maxJumpAcrossDistance: 0
    minRegionArea: 2
    manualCellSize: 0
    cellSize: 0.16666667
    manualTileSize: 0
    tileSize: 256
    accuratePlacement: 0
    debug:
      m_Flags: 0
  - serializedVersion: 2
    agentTypeID: 1479372276
    agentRadius: 1
    agentHeight: 2
    agentSlope: 11.1
    agentClimb: 0.1
    ledgeDropHeight: 0
    maxJumpAcrossDistance: 0
    minRegionArea: 2
    manualCellSize: 0
    cellSize: 0.16666667
    manualTileSize: 0
    tileSize: 256
    accuratePlacement: 0
    debug:
      m_Flags: 0
  - serializedVersion: 2
    agentTypeID: -1923039037
    agentRadius: 0.5
    agentHeight: 2
    agentSlope: 25.3
    agentClimb: 0.82
    ledgeDropHeight: 0
    maxJumpAcrossDistance: 0
    minRegionArea: 2
    manualCellSize: 0
    cellSize: 0.16666667
    manualTileSize: 0
    tileSize: 256
    accuratePlacement: 0
    debug:
      m_Flags: 0
  m_SettingNames:
  - Humanoid
  - Red
  - Blue
  - Green
  - Orange
